%YAML 1.1
%TAG !u! tag:unity3d.com,2011:
--- !u!1 &5384082802667172830
GameObject:
  m_ObjectHideFlags: 0
  m_CorrespondingSourceObject: {fileID: 0}
  m_PrefabInstance: {fileID: 0}
  m_PrefabAsset: {fileID: 0}
  serializedVersion: 6
  m_Component:
  - component: {fileID: 1880778556516539426}
  - component: {fileID: 7544432049778991345}
  m_Layer: 31
  m_Name: TS1
  m_TagString: Untagged
  m_Icon: {fileID: 0}
  m_NavMeshLayer: 0
  m_StaticEditorFlags: 0
  m_IsActive: 1
--- !u!4 &1880778556516539426
Transform:
  m_ObjectHideFlags: 0
  m_CorrespondingSourceObject: {fileID: 0}
  m_PrefabInstance: {fileID: 0}
  m_PrefabAsset: {fileID: 0}
  m_GameObject: {fileID: 5384082802667172830}
  m_LocalRotation: {x: 0, y: 0, z: 0, w: 1}
  m_LocalPosition: {x: 0, y: 0, z: 0}
  m_LocalScale: {x: 1, y: 1, z: 1}
  m_Children:
  - {fileID: 6346516970944649684}
  m_Father: {fileID: 0}
  m_RootOrder: 0
  m_LocalEulerAnglesHint: {x: 0, y: 0, z: 0}
--- !u!156049354 &7544432049778991345
Grid:
  m_ObjectHideFlags: 0
  m_CorrespondingSourceObject: {fileID: 0}
  m_PrefabInstance: {fileID: 0}
  m_PrefabAsset: {fileID: 0}
  m_GameObject: {fileID: 5384082802667172830}
  m_Enabled: 1
  m_CellSize: {x: 1, y: 1, z: 0}
  m_CellGap: {x: 0, y: 0, z: 0}
  m_CellLayout: 0
  m_CellSwizzle: 0
--- !u!1 &8293971224572640943
GameObject:
  m_ObjectHideFlags: 0
  m_CorrespondingSourceObject: {fileID: 0}
  m_PrefabInstance: {fileID: 0}
  m_PrefabAsset: {fileID: 0}
  serializedVersion: 6
  m_Component:
  - component: {fileID: 6346516970944649684}
  - component: {fileID: 7911162051258867496}
  - component: {fileID: 3735803780837062760}
  m_Layer: 31
  m_Name: Layer1
  m_TagString: Untagged
  m_Icon: {fileID: 0}
  m_NavMeshLayer: 0
  m_StaticEditorFlags: 0
  m_IsActive: 1
--- !u!4 &6346516970944649684
Transform:
  m_ObjectHideFlags: 0
  m_CorrespondingSourceObject: {fileID: 0}
  m_PrefabInstance: {fileID: 0}
  m_PrefabAsset: {fileID: 0}
  m_GameObject: {fileID: 8293971224572640943}
  m_LocalRotation: {x: -0, y: -0, z: -0, w: 1}
  m_LocalPosition: {x: 0, y: 0, z: 0}
  m_LocalScale: {x: 1, y: 1, z: 1}
  m_Children: []
  m_Father: {fileID: 1880778556516539426}
  m_RootOrder: 0
  m_LocalEulerAnglesHint: {x: 0, y: 0, z: 0}
--- !u!1839735485 &7911162051258867496
Tilemap:
  m_ObjectHideFlags: 0
  m_CorrespondingSourceObject: {fileID: 0}
  m_PrefabInstance: {fileID: 0}
  m_PrefabAsset: {fileID: 0}
  m_GameObject: {fileID: 8293971224572640943}
  m_Enabled: 1
  m_Tiles:
  - first: {x: -1, y: -7, z: 0}
    second:
      m_TileIndex: 28
      m_TileSpriteIndex: 28
      m_TileMatrixIndex: 0
      m_TileColorIndex: 0
      m_ObjectToInstantiate: {fileID: 0}
      m_TileFlags: 1
      m_ColliderType: 1
  - first: {x: 0, y: -7, z: 0}
    second:
      m_TileIndex: 29
      m_TileSpriteIndex: 29
      m_TileMatrixIndex: 0
      m_TileColorIndex: 0
      m_ObjectToInstantiate: {fileID: 0}
      m_TileFlags: 1
      m_ColliderType: 1
  - first: {x: 1, y: -7, z: 0}
    second:
      m_TileIndex: 30
      m_TileSpriteIndex: 30
      m_TileMatrixIndex: 0
      m_TileColorIndex: 0
      m_ObjectToInstantiate: {fileID: 0}
      m_TileFlags: 1
      m_ColliderType: 1
  - first: {x: 2, y: -7, z: 0}
    second:
      m_TileIndex: 31
      m_TileSpriteIndex: 31
      m_TileMatrixIndex: 0
      m_TileColorIndex: 0
      m_ObjectToInstantiate: {fileID: 0}
      m_TileFlags: 1
      m_ColliderType: 1
  - first: {x: -1, y: -6, z: 0}
    second:
      m_TileIndex: 24
      m_TileSpriteIndex: 24
      m_TileMatrixIndex: 0
      m_TileColorIndex: 0
      m_ObjectToInstantiate: {fileID: 0}
      m_TileFlags: 1
      m_ColliderType: 1
  - first: {x: 0, y: -6, z: 0}
    second:
      m_TileIndex: 25
      m_TileSpriteIndex: 25
      m_TileMatrixIndex: 0
      m_TileColorIndex: 0
      m_ObjectToInstantiate: {fileID: 0}
      m_TileFlags: 1
      m_ColliderType: 1
  - first: {x: 1, y: -6, z: 0}
    second:
      m_TileIndex: 26
      m_TileSpriteIndex: 26
      m_TileMatrixIndex: 0
      m_TileColorIndex: 0
      m_ObjectToInstantiate: {fileID: 0}
      m_TileFlags: 1
      m_ColliderType: 1
  - first: {x: 2, y: -6, z: 0}
    second:
      m_TileIndex: 27
      m_TileSpriteIndex: 27
      m_TileMatrixIndex: 0
      m_TileColorIndex: 0
      m_ObjectToInstantiate: {fileID: 0}
      m_TileFlags: 1
      m_ColliderType: 1
  - first: {x: -1, y: -5, z: 0}
    second:
      m_TileIndex: 20
      m_TileSpriteIndex: 20
      m_TileMatrixIndex: 0
      m_TileColorIndex: 0
      m_ObjectToInstantiate: {fileID: 0}
      m_TileFlags: 1
      m_ColliderType: 1
  - first: {x: 0, y: -5, z: 0}
    second:
      m_TileIndex: 21
      m_TileSpriteIndex: 21
      m_TileMatrixIndex: 0
      m_TileColorIndex: 0
      m_ObjectToInstantiate: {fileID: 0}
      m_TileFlags: 1
      m_ColliderType: 1
  - first: {x: 1, y: -5, z: 0}
    second:
      m_TileIndex: 22
      m_TileSpriteIndex: 22
      m_TileMatrixIndex: 0
      m_TileColorIndex: 0
      m_ObjectToInstantiate: {fileID: 0}
      m_TileFlags: 1
      m_ColliderType: 1
  - first: {x: 2, y: -5, z: 0}
    second:
      m_TileIndex: 23
      m_TileSpriteIndex: 23
      m_TileMatrixIndex: 0
      m_TileColorIndex: 0
      m_ObjectToInstantiate: {fileID: 0}
      m_TileFlags: 1
      m_ColliderType: 1
  - first: {x: -1, y: -4, z: 0}
    second:
      m_TileIndex: 16
      m_TileSpriteIndex: 16
      m_TileMatrixIndex: 0
      m_TileColorIndex: 0
      m_ObjectToInstantiate: {fileID: 0}
      m_TileFlags: 1
      m_ColliderType: 1
  - first: {x: 0, y: -4, z: 0}
    second:
      m_TileIndex: 17
      m_TileSpriteIndex: 17
      m_TileMatrixIndex: 0
      m_TileColorIndex: 0
      m_ObjectToInstantiate: {fileID: 0}
      m_TileFlags: 1
      m_ColliderType: 1
  - first: {x: 1, y: -4, z: 0}
    second:
      m_TileIndex: 18
      m_TileSpriteIndex: 18
      m_TileMatrixIndex: 0
      m_TileColorIndex: 0
      m_ObjectToInstantiate: {fileID: 0}
      m_TileFlags: 1
      m_ColliderType: 1
  - first: {x: 2, y: -4, z: 0}
    second:
      m_TileIndex: 19
      m_TileSpriteIndex: 19
      m_TileMatrixIndex: 0
      m_TileColorIndex: 0
      m_ObjectToInstantiate: {fileID: 0}
      m_TileFlags: 1
      m_ColliderType: 1
  - first: {x: -1, y: -3, z: 0}
    second:
      m_TileIndex: 12
      m_TileSpriteIndex: 12
      m_TileMatrixIndex: 0
      m_TileColorIndex: 0
      m_ObjectToInstantiate: {fileID: 0}
      m_TileFlags: 1
      m_ColliderType: 1
  - first: {x: 0, y: -3, z: 0}
    second:
      m_TileIndex: 13
      m_TileSpriteIndex: 13
      m_TileMatrixIndex: 0
      m_TileColorIndex: 0
      m_ObjectToInstantiate: {fileID: 0}
      m_TileFlags: 1
      m_ColliderType: 1
  - first: {x: 1, y: -3, z: 0}
    second:
      m_TileIndex: 14
      m_TileSpriteIndex: 14
      m_TileMatrixIndex: 0
      m_TileColorIndex: 0
      m_ObjectToInstantiate: {fileID: 0}
      m_TileFlags: 1
      m_ColliderType: 1
  - first: {x: 2, y: -3, z: 0}
    second:
      m_TileIndex: 15
      m_TileSpriteIndex: 15
      m_TileMatrixIndex: 0
      m_TileColorIndex: 0
      m_ObjectToInstantiate: {fileID: 0}
      m_TileFlags: 1
      m_ColliderType: 1
  - first: {x: -1, y: -2, z: 0}
    second:
      m_TileIndex: 8
      m_TileSpriteIndex: 8
      m_TileMatrixIndex: 0
      m_TileColorIndex: 0
      m_ObjectToInstantiate: {fileID: 0}
      m_TileFlags: 1
      m_ColliderType: 1
  - first: {x: 0, y: -2, z: 0}
    second:
      m_TileIndex: 9
      m_TileSpriteIndex: 9
      m_TileMatrixIndex: 0
      m_TileColorIndex: 0
      m_ObjectToInstantiate: {fileID: 0}
      m_TileFlags: 1
      m_ColliderType: 1
  - first: {x: 1, y: -2, z: 0}
    second:
      m_TileIndex: 10
      m_TileSpriteIndex: 10
      m_TileMatrixIndex: 0
      m_TileColorIndex: 0
      m_ObjectToInstantiate: {fileID: 0}
      m_TileFlags: 1
      m_ColliderType: 1
  - first: {x: 2, y: -2, z: 0}
    second:
      m_TileIndex: 11
      m_TileSpriteIndex: 11
      m_TileMatrixIndex: 0
      m_TileColorIndex: 0
      m_ObjectToInstantiate: {fileID: 0}
      m_TileFlags: 1
      m_ColliderType: 1
  - first: {x: -1, y: -1, z: 0}
    second:
      m_TileIndex: 4
      m_TileSpriteIndex: 4
      m_TileMatrixIndex: 0
      m_TileColorIndex: 0
      m_ObjectToInstantiate: {fileID: 0}
      m_TileFlags: 1
      m_ColliderType: 1
  - first: {x: 0, y: -1, z: 0}
    second:
      m_TileIndex: 5
      m_TileSpriteIndex: 5
      m_TileMatrixIndex: 0
      m_TileColorIndex: 0
      m_ObjectToInstantiate: {fileID: 0}
      m_TileFlags: 1
      m_ColliderType: 1
  - first: {x: 1, y: -1, z: 0}
    second:
      m_TileIndex: 6
      m_TileSpriteIndex: 6
      m_TileMatrixIndex: 0
      m_TileColorIndex: 0
      m_ObjectToInstantiate: {fileID: 0}
      m_TileFlags: 1
      m_ColliderType: 1
  - first: {x: 2, y: -1, z: 0}
    second:
      m_TileIndex: 7
      m_TileSpriteIndex: 7
      m_TileMatrixIndex: 0
      m_TileColorIndex: 0
      m_ObjectToInstantiate: {fileID: 0}
      m_TileFlags: 1
      m_ColliderType: 1
  - first: {x: -1, y: 0, z: 0}
    second:
      m_TileIndex: 0
      m_TileSpriteIndex: 0
      m_TileMatrixIndex: 0
      m_TileColorIndex: 0
      m_ObjectToInstantiate: {fileID: 0}
      m_TileFlags: 1
      m_ColliderType: 1
  - first: {x: 0, y: 0, z: 0}
    second:
      m_TileIndex: 1
      m_TileSpriteIndex: 1
      m_TileMatrixIndex: 0
      m_TileColorIndex: 0
      m_ObjectToInstantiate: {fileID: 0}
      m_TileFlags: 1
      m_ColliderType: 1
  - first: {x: 1, y: 0, z: 0}
    second:
      m_TileIndex: 2
      m_TileSpriteIndex: 2
      m_TileMatrixIndex: 0
      m_TileColorIndex: 0
      m_ObjectToInstantiate: {fileID: 0}
      m_TileFlags: 1
      m_ColliderType: 1
  - first: {x: 2, y: 0, z: 0}
    second:
      m_TileIndex: 3
      m_TileSpriteIndex: 3
      m_TileMatrixIndex: 0
      m_TileColorIndex: 0
      m_ObjectToInstantiate: {fileID: 0}
      m_TileFlags: 1
      m_ColliderType: 1
  m_AnimatedTiles: {}
  m_TileAssetArray:
  - m_RefCount: 1
    m_Data: {fileID: 11400000, guid: 8b8b18daae7cbc149be35fd587d3da37, type: 2}
  - m_RefCount: 1
    m_Data: {fileID: 11400000, guid: 50f3fa4b090a1154eaf6578b8d68aa9b, type: 2}
  - m_RefCount: 1
    m_Data: {fileID: 11400000, guid: efbee77b9337d60498c054a68adef480, type: 2}
  - m_RefCount: 1
    m_Data: {fileID: 11400000, guid: 907829c51bb30434ea48ffe37bc9fdf2, type: 2}
  - m_RefCount: 1
    m_Data: {fileID: 11400000, guid: 44791ac928c84e342b60a363140c2feb, type: 2}
  - m_RefCount: 1
    m_Data: {fileID: 11400000, guid: 1bb3314eea3279b408e2da498392d126, type: 2}
  - m_RefCount: 1
    m_Data: {fileID: 11400000, guid: ab2d5bca9c74d8a40aebdc8bbed3005b, type: 2}
  - m_RefCount: 1
    m_Data: {fileID: 11400000, guid: 0c2a965ab9413aa419b5573854e94079, type: 2}
  - m_RefCount: 1
    m_Data: {fileID: 11400000, guid: 4eae023a2d12c004dad35fe4d6daefcd, type: 2}
  - m_RefCount: 1
    m_Data: {fileID: 11400000, guid: 48c345dd0f9b51a47a082ee9c63eb454, type: 2}
  - m_RefCount: 1
    m_Data: {fileID: 11400000, guid: 7b1a8d6749742d7409bd3f7b378ebe79, type: 2}
  - m_RefCount: 1
    m_Data: {fileID: 11400000, guid: b6e932271bcdaf14f823e41ef881e1b1, type: 2}
  - m_RefCount: 1
    m_Data: {fileID: 11400000, guid: efe4b45abb2d28849b5e97fdb3d875f8, type: 2}
  - m_RefCount: 1
    m_Data: {fileID: 11400000, guid: 191c222ed1d86df43b278b7e1feec959, type: 2}
  - m_RefCount: 1
    m_Data: {fileID: 11400000, guid: b3daa9e792a77ef4eb3e74400c675011, type: 2}
  - m_RefCount: 1
    m_Data: {fileID: 11400000, guid: a2cd80d438ee2f54188d388aa916a89c, type: 2}
  - m_RefCount: 1
    m_Data: {fileID: 11400000, guid: 49f6797fabfb2384c873fcaed54d6038, type: 2}
  - m_RefCount: 1
    m_Data: {fileID: 11400000, guid: c3e730e0f5c0fc948940000c4bbaa7f4, type: 2}
  - m_RefCount: 1
    m_Data: {fileID: 11400000, guid: bbdb844974788a848b3fc885a5d317da, type: 2}
  - m_RefCount: 1
    m_Data: {fileID: 11400000, guid: c400bb4b1110be3428794b1c433f71ba, type: 2}
  - m_RefCount: 1
    m_Data: {fileID: 11400000, guid: 2d5ff48e9cac9f5468024c30adf5cc40, type: 2}
  - m_RefCount: 1
    m_Data: {fileID: 11400000, guid: e0c7e198b35bbbb4dbb81eed72a841b7, type: 2}
  - m_RefCount: 1
    m_Data: {fileID: 11400000, guid: c4d1f48b1bbb64446804c85bc039b97e, type: 2}
  - m_RefCount: 1
    m_Data: {fileID: 11400000, guid: 82eaadbf3c0e7c0438f7138d9b909e02, type: 2}
  - m_RefCount: 1
    m_Data: {fileID: 11400000, guid: c51e97ce5696e334fa924bdb39b4db88, type: 2}
  - m_RefCount: 1
    m_Data: {fileID: 11400000, guid: c023e1c9570846d40810c6cd7e4c9ec3, type: 2}
  - m_RefCount: 1
    m_Data: {fileID: 11400000, guid: c3219ce270cc4fc42af4047de5741ff3, type: 2}
  - m_RefCount: 1
    m_Data: {fileID: 11400000, guid: 6da0dfb0d40a4d24aba2f2d3cf66a71d, type: 2}
  - m_RefCount: 1
    m_Data: {fileID: 11400000, guid: a6fb9afc7bb9b684e8aac659ff335876, type: 2}
  - m_RefCount: 1
    m_Data: {fileID: 11400000, guid: 1b24481239a6f2846943d0797320ccc2, type: 2}
  - m_RefCount: 1
    m_Data: {fileID: 11400000, guid: 9acfc3bc3deb83448b9add06e7c5574c, type: 2}
  - m_RefCount: 1
    m_Data: {fileID: 11400000, guid: ebccce612c3e1e44192093139629e42e, type: 2}
  m_TileSpriteArray:
  - m_RefCount: 1
    m_Data: {fileID: 5554216122756231235, guid: 949f5b4e82dedee40931246e43ad9502,
      type: 3}
  - m_RefCount: 1
    m_Data: {fileID: -698430232215783580, guid: 949f5b4e82dedee40931246e43ad9502,
      type: 3}
  - m_RefCount: 1
    m_Data: {fileID: 4147918004279806369, guid: 949f5b4e82dedee40931246e43ad9502,
      type: 3}
  - m_RefCount: 1
    m_Data: {fileID: -4480275557554697091, guid: 949f5b4e82dedee40931246e43ad9502,
      type: 3}
  - m_RefCount: 1
    m_Data: {fileID: -5056221437634338576, guid: 949f5b4e82dedee40931246e43ad9502,
      type: 3}
  - m_RefCount: 1
    m_Data: {fileID: -2088846769777093343, guid: 949f5b4e82dedee40931246e43ad9502,
      type: 3}
  - m_RefCount: 1
    m_Data: {fileID: 8877368982792376436, guid: 949f5b4e82dedee40931246e43ad9502,
      type: 3}
  - m_RefCount: 1
    m_Data: {fileID: -6596922490365097136, guid: 949f5b4e82dedee40931246e43ad9502,
      type: 3}
  - m_RefCount: 1
    m_Data: {fileID: 3334812204250238074, guid: 949f5b4e82dedee40931246e43ad9502,
      type: 3}
  - m_RefCount: 1
    m_Data: {fileID: 5967795795837306674, guid: 949f5b4e82dedee40931246e43ad9502,
      type: 3}
  - m_RefCount: 1
    m_Data: {fileID: -5691303060676991829, guid: 949f5b4e82dedee40931246e43ad9502,
      type: 3}
  - m_RefCount: 1
    m_Data: {fileID: 6684933757121811547, guid: 949f5b4e82dedee40931246e43ad9502,
      type: 3}
  - m_RefCount: 1
    m_Data: {fileID: -9191143059727539874, guid: 949f5b4e82dedee40931246e43ad9502,
      type: 3}
  - m_RefCount: 1
    m_Data: {fileID: 8804346995418868313, guid: 949f5b4e82dedee40931246e43ad9502,
      type: 3}
  - m_RefCount: 1
    m_Data: {fileID: -3015341031074877397, guid: 949f5b4e82dedee40931246e43ad9502,
      type: 3}
  - m_RefCount: 1
    m_Data: {fileID: 6350263998776587281, guid: 949f5b4e82dedee40931246e43ad9502,
      type: 3}
  - m_RefCount: 1
    m_Data: {fileID: -594854023223159323, guid: 949f5b4e82dedee40931246e43ad9502,
      type: 3}
  - m_RefCount: 1
    m_Data: {fileID: -7520876576387851571, guid: 949f5b4e82dedee40931246e43ad9502,
      type: 3}
  - m_RefCount: 1
    m_Data: {fileID: 1296955713063707548, guid: 949f5b4e82dedee40931246e43ad9502,
      type: 3}
  - m_RefCount: 1
    m_Data: {fileID: 7828017421341732505, guid: 949f5b4e82dedee40931246e43ad9502,
      type: 3}
  - m_RefCount: 1
    m_Data: {fileID: 5641304389960186697, guid: 949f5b4e82dedee40931246e43ad9502,
      type: 3}
  - m_RefCount: 1
    m_Data: {fileID: -1149633687490783162, guid: 949f5b4e82dedee40931246e43ad9502,
      type: 3}
  - m_RefCount: 1
    m_Data: {fileID: 5886386325936423871, guid: 949f5b4e82dedee40931246e43ad9502,
      type: 3}
  - m_RefCount: 1
    m_Data: {fileID: -690582969297042733, guid: 949f5b4e82dedee40931246e43ad9502,
      type: 3}
  - m_RefCount: 1
    m_Data: {fileID: -2773276035432408682, guid: 949f5b4e82dedee40931246e43ad9502,
      type: 3}
  - m_RefCount: 1
    m_Data: {fileID: 2448625161412444324, guid: 949f5b4e82dedee40931246e43ad9502,
      type: 3}
  - m_RefCount: 1
    m_Data: {fileID: -4274006568956793502, guid: 949f5b4e82dedee40931246e43ad9502,
      type: 3}
  - m_RefCount: 1
    m_Data: {fileID: 7410775782791203494, guid: 949f5b4e82dedee40931246e43ad9502,
      type: 3}
  - m_RefCount: 1
    m_Data: {fileID: 7760232811376355313, guid: 949f5b4e82dedee40931246e43ad9502,
      type: 3}
  - m_RefCount: 1
    m_Data: {fileID: -1744333691908957594, guid: 949f5b4e82dedee40931246e43ad9502,
      type: 3}
  - m_RefCount: 1
    m_Data: {fileID: -5081600913789289104, guid: 949f5b4e82dedee40931246e43ad9502,
      type: 3}
  - m_RefCount: 1
    m_Data: {fileID: -7939286994990546459, guid: 949f5b4e82dedee40931246e43ad9502,
      type: 3}
  m_TileMatrixArray:
  - m_RefCount: 32
    m_Data:
      e00: 1
      e01: 0
      e02: 0
      e03: 0
      e10: 0
      e11: 1
      e12: 0
      e13: 0
      e20: 0
      e21: 0
      e22: 1
      e23: 0
      e30: 0
      e31: 0
      e32: 0
      e33: 1
  m_TileColorArray:
  - m_RefCount: 32
    m_Data: {r: 1, g: 1, b: 1, a: 1}
  m_AnimationFrameRate: 1
  m_Color: {r: 1, g: 1, b: 1, a: 1}
  m_Origin: {x: -1, y: -7, z: 0}
  m_Size: {x: 4, y: 8, z: 1}
  m_TileAnchor: {x: 0.5, y: 0.5, z: 0}
  m_TileOrientation: 0
  m_TileOrientationMatrix:
    e00: 1
    e01: 0
    e02: 0
    e03: 0
    e10: 0
    e11: 1
    e12: 0
    e13: 0
    e20: 0
    e21: 0
    e22: 1
    e23: 0
    e30: 0
    e31: 0
    e32: 0
    e33: 1
--- !u!483693784 &3735803780837062760
TilemapRenderer:
  m_ObjectHideFlags: 0
  m_CorrespondingSourceObject: {fileID: 0}
  m_PrefabInstance: {fileID: 0}
  m_PrefabAsset: {fileID: 0}
  m_GameObject: {fileID: 8293971224572640943}
  m_Enabled: 0
  m_CastShadows: 0
  m_ReceiveShadows: 0
  m_DynamicOccludee: 0
  m_MotionVectors: 1
  m_LightProbeUsage: 0
  m_ReflectionProbeUsage: 0
  m_RenderingLayerMask: 1
  m_RendererPriority: 0
  m_Materials:
  - {fileID: 10754, guid: 0000000000000000f000000000000000, type: 0}
  m_StaticBatchInfo:
    firstSubMesh: 0
    subMeshCount: 0
  m_StaticBatchRoot: {fileID: 0}
  m_ProbeAnchor: {fileID: 0}
  m_LightProbeVolumeOverride: {fileID: 0}
  m_ScaleInLightmap: 1
  m_ReceiveGI: 1
  m_PreserveUVs: 0
  m_IgnoreNormalsForChartDetection: 0
  m_ImportantGI: 0
  m_StitchLightmapSeams: 1
  m_SelectedEditorRenderState: 0
  m_MinimumChartSize: 4
  m_AutoUVMaxDistance: 0.5
  m_AutoUVMaxAngle: 89
  m_LightmapParameters: {fileID: 0}
  m_SortingLayerID: 0
  m_SortingLayer: 0
  m_SortingOrder: 0
  m_ChunkSize: {x: 32, y: 32, z: 32}
  m_ChunkCullingBounds: {x: 0, y: 0, z: 0}
  m_MaxChunkCount: 16
  m_MaxFrameAge: 16
  m_SortOrder: 0
  m_Mode: 0
  m_DetectChunkCullingBounds: 0
  m_MaskInteraction: 0
--- !u!114 &-6621760366684372837
MonoBehaviour:
  m_ObjectHideFlags: 0
  m_CorrespondingSourceObject: {fileID: 0}
  m_PrefabInstance: {fileID: 0}
  m_PrefabAsset: {fileID: 0}
  m_GameObject: {fileID: 0}
  m_Enabled: 1
  m_EditorHideFlags: 0
  m_Script: {fileID: 12395, guid: 0000000000000000e000000000000000, type: 0}
  m_Name: Palette Settings
  m_EditorClassIdentifier: 
  cellSizing: 0
