%YAML 1.1
%TAG !u! tag:unity3d.com,2011:
--- !u!1045 &1
EditorBuildSettings:
  m_ObjectHideFlags: 0
  serializedVersion: 2
  m_Scenes:
  - enabled: 0
    path: Assets/Creator Kit - Puzzle/Scenes/ExampleScenes/ExampleMenu.unity
    guid: 0d85e03bacb199f408b4439fac4e3d46
  - enabled: 0
    path: Assets/Creator Kit - Puzzle/Scenes/ExampleScenes/Level01.unity
    guid: 2e165c8be289f47448ae22da26c690f2
  - enabled: 0
    path: Assets/Creator Kit - Puzzle/Scenes/ExampleScenes/Level02.unity
    guid: 8587612e8826fec4994aafd966fa4dc3
  - enabled: 0
    path: Assets/Creator Kit - Puzzle/Scenes/ExampleScenes/Level03.unity
    guid: 8e80dae27616da241995f2290dca03b7
  - enabled: 1
    path: Assets/main menu.unity
    guid: 92f67dd20a511194bb496b3b6b5073b6
  - enabled: 1
    path: Assets/batman prototype.unity
    guid: 5dd1bbc7d65ed114283a658b17e598f8
  m_configObjects: {}
